{ "hard_gas_limit_per_operation": "1040000",
  "hard_gas_limit_per_block": "10400000",
  "hard_storage_limit_per_operation": "60000", "cost_per_byte": "250",
  "chain_id": "NetXynUjJNZm7wi",
  "initial_timestamp": "2021-01-01T00:00:00Z" }
